CF:1.0.0.0-1.0.0.255
CF:1.1.1.0-1.1.1.255
CF:103.21.244.0-103.21.247.255
CF:103.21.246.0-103.21.246.255
CF:103.21.247.0-103.21.247.255
CF:103.22.200.0-103.22.201.255
CF:103.22.200.0-103.22.203.255
CF:103.22.202.0-103.22.202.255
CF:103.22.203.0-103.22.203.255
CF:103.31.4.0-103.31.5.255
CF:103.31.4.0-103.31.7.255
CF:104.16.0.0-104.16.15.255
CF:104.16.0.0-104.31.255.255
CF:104.16.16.0-104.16.31.255
CF:104.16.32.0-104.16.47.255
CF:104.16.48.0-104.16.63.255
CF:104.16.64.0-104.16.79.255
CF:104.16.80.0-104.16.95.255
CF:104.16.96.0-104.16.111.255
CF:104.16.112.0-104.16.127.255
CF:104.16.128.0-104.16.143.255
CF:104.16.144.0-104.16.159.255
CF:104.16.160.0-104.16.175.255
CF:104.16.176.0-104.16.191.255
CF:104.16.192.0-104.16.207.255
CF:104.16.208.0-104.16.223.255
CF:104.16.224.0-104.16.239.255
CF:104.16.240.0-104.16.255.255
CF:104.17.0.0-104.17.15.255
CF:104.17.16.0-104.17.31.255
CF:104.17.32.0-104.17.47.255
CF:104.17.48.0-104.17.63.255
CF:104.17.64.0-104.17.79.255
CF:104.17.80.0-104.17.95.255
CF:104.17.96.0-104.17.111.255
CF:104.17.112.0-104.17.127.255
CF:104.17.128.0-104.17.143.255
CF:104.17.144.0-104.17.159.255
CF:104.17.160.0-104.17.175.255
CF:104.17.176.0-104.17.191.255
CF:104.17.192.0-104.17.207.255
CF:104.17.208.0-104.17.223.255
CF:104.17.224.0-104.17.239.255
CF:104.17.240.0-104.17.255.255
CF:104.18.0.0-104.18.15.255
CF:104.18.16.0-104.18.31.255
CF:104.18.32.0-104.18.47.255
CF:104.18.48.0-104.18.63.255
CF:104.18.64.0-104.18.79.255
CF:104.18.80.0-104.18.95.255
CF:104.18.96.0-104.18.111.255
CF:104.18.112.0-104.18.127.255
CF:104.18.128.0-104.18.143.255
CF:104.18.144.0-104.18.159.255
CF:104.18.160.0-104.18.175.255
CF:104.18.176.0-104.18.191.255
CF:104.18.192.0-104.18.207.255
CF:104.18.208.0-104.18.223.255
CF:104.18.224.0-104.18.239.255
CF:104.18.240.0-104.18.255.255
CF:104.19.0.0-104.19.15.255
CF:104.19.16.0-104.19.31.255
CF:104.19.32.0-104.19.47.255
CF:104.19.48.0-104.19.63.255
CF:104.19.64.0-104.19.79.255
CF:104.19.80.0-104.19.95.255
CF:104.19.96.0-104.19.111.255
CF:104.19.112.0-104.19.127.255
CF:104.19.128.0-104.19.143.255
CF:104.19.144.0-104.19.159.255
CF:104.19.160.0-104.19.175.255
CF:104.19.176.0-104.19.191.255
CF:104.19.192.0-104.19.207.255
CF:104.19.208.0-104.19.223.255
CF:104.19.224.0-104.19.239.255
CF:104.19.240.0-104.19.255.255
CF:104.20.0.0-104.20.15.255
CF:104.20.16.0-104.20.31.255
CF:104.20.32.0-104.20.47.255
CF:104.20.48.0-104.20.63.255
CF:104.20.64.0-104.20.79.255
CF:104.20.80.0-104.20.95.255
CF:104.20.96.0-104.20.111.255
CF:104.20.112.0-104.20.127.255
CF:104.20.128.0-104.20.143.255
CF:104.20.144.0-104.20.159.255
CF:104.20.160.0-104.20.175.255
CF:104.20.176.0-104.20.191.255
CF:104.20.192.0-104.20.207.255
CF:104.20.208.0-104.20.223.255
CF:104.20.224.0-104.20.239.255
CF:104.20.240.0-104.20.255.255
CF:104.22.0.0-104.22.15.255
CF:104.23.96.0-104.23.111.255
CF:104.23.112.0-104.23.127.255
CF:104.23.128.0-104.23.143.255
CF:104.23.192.0-104.23.207.255
CF:104.23.240.0-104.23.243.255
CF:104.24.0.0-104.24.15.255
CF:104.24.16.0-104.24.31.255
CF:104.24.32.0-104.24.47.255
CF:104.24.48.0-104.24.63.255
CF:104.24.64.0-104.24.79.255
CF:104.24.80.0-104.24.95.255
CF:104.24.96.0-104.24.111.255
CF:104.24.112.0-104.24.127.255
CF:104.24.128.0-104.24.143.255
CF:104.24.144.0-104.24.159.255
CF:104.24.160.0-104.24.175.255
CF:104.24.176.0-104.24.191.255
CF:104.24.192.0-104.24.207.255
CF:104.24.208.0-104.24.223.255
CF:104.24.224.0-104.24.239.255
CF:104.24.240.0-104.24.255.255
CF:104.25.0.0-104.25.15.255
CF:104.25.16.0-104.25.31.255
CF:104.25.32.0-104.25.47.255
CF:104.25.48.0-104.25.63.255
CF:104.25.64.0-104.25.79.255
CF:104.25.80.0-104.25.95.255
CF:104.25.96.0-104.25.111.255
CF:104.25.112.0-104.25.127.255
CF:104.25.128.0-104.25.143.255
CF:104.25.144.0-104.25.159.255
CF:104.25.160.0-104.25.175.255
CF:104.25.176.0-104.25.191.255
CF:104.25.192.0-104.25.207.255
CF:104.25.208.0-104.25.223.255
CF:104.25.224.0-104.25.239.255
CF:104.25.240.0-104.25.255.255
CF:104.26.0.0-104.26.15.255
CF:104.27.0.0-104.27.15.255
CF:104.27.16.0-104.27.31.255
CF:104.27.32.0-104.27.47.255
CF:104.27.48.0-104.27.63.255
CF:104.27.64.0-104.27.79.255
CF:104.27.80.0-104.27.95.255
CF:104.27.96.0-104.27.111.255
CF:104.27.112.0-104.27.127.255
CF:104.27.128.0-104.27.143.255
CF:104.27.144.0-104.27.159.255
CF:104.27.160.0-104.27.175.255
CF:104.27.176.0-104.27.191.255
CF:104.27.192.0-104.27.207.255
CF:104.27.208.0-104.27.223.255
CF:104.27.240.0-104.27.243.255
CF:104.28.0.0-104.28.15.255
CF:104.28.16.0-104.28.31.255
CF:104.28.32.0-104.28.47.255
CF:104.28.48.0-104.28.63.255
CF:104.28.64.0-104.28.79.255
CF:104.28.80.0-104.28.95.255
CF:104.28.96.0-104.28.111.255
CF:104.28.112.0-104.28.127.255
CF:104.28.128.0-104.28.143.255
CF:104.28.144.0-104.28.159.255
CF:104.28.160.0-104.28.175.255
CF:104.28.176.0-104.28.191.255
CF:104.28.192.0-104.28.207.255
CF:104.28.208.0-104.28.223.255
CF:104.28.224.0-104.28.239.255
CF:104.28.240.0-104.28.255.255
CF:104.31.0.0-104.31.15.255
CF:104.31.16.0-104.31.31.255
CF:104.31.64.0-104.31.79.255
CF:104.31.80.0-104.31.95.255
CF:104.31.112.0-104.31.115.255
CF:104.31.128.0-104.31.143.255
CF:104.31.144.0-104.31.159.255
CF:104.31.160.0-104.31.175.255
CF:104.31.176.0-104.31.191.255
CF:104.31.192.0-104.31.207.255
CF:104.31.208.0-104.31.223.255
CF:104.31.224.0-104.31.239.255
CF:104.31.240.0-104.31.255.255
CF:108.162.192.0-108.162.255.255
CF:108.162.208.0-108.162.208.255
CF:108.162.210.0-108.162.210.255
CF:108.162.211.0-108.162.211.255
CF:108.162.212.0-108.162.212.255
CF:108.162.213.0-108.162.213.255
CF:108.162.214.0-108.162.214.255
CF:108.162.215.0-108.162.215.255
CF:108.162.216.0-108.162.216.255
CF:108.162.217.0-108.162.217.255
CF:108.162.218.0-108.162.218.255
CF:108.162.219.0-108.162.219.255
CF:108.162.220.0-108.162.220.255
CF:108.162.221.0-108.162.221.255
CF:108.162.222.0-108.162.222.255
CF:108.162.223.0-108.162.223.255
CF:108.162.226.0-108.162.226.255
CF:108.162.227.0-108.162.227.255
CF:108.162.228.0-108.162.228.255
CF:108.162.229.0-108.162.229.255
CF:108.162.235.0-108.162.235.255
CF:108.162.236.0-108.162.236.255
CF:108.162.237.0-108.162.237.255
CF:108.162.238.0-108.162.238.255
CF:108.162.239.0-108.162.239.255
CF:108.162.240.0-108.162.240.255
CF:108.162.241.0-108.162.241.255
CF:108.162.242.0-108.162.242.255
CF:108.162.243.0-108.162.243.255
CF:108.162.244.0-108.162.244.255
CF:108.162.245.0-108.162.245.255
CF:108.162.246.0-108.162.246.255
CF:108.162.247.0-108.162.247.255
CF:108.162.248.0-108.162.248.255
CF:108.162.249.0-108.162.249.255
CF:108.162.250.0-108.162.250.255
CF:108.162.252.0-108.162.252.255
CF:108.162.255.0-108.162.255.255
CF:131.0.72.0-131.0.75.255
CF:141.101.64.0-141.101.64.255
CF:141.101.64.0-141.101.127.255
CF:141.101.65.0-141.101.65.255
CF:141.101.66.0-141.101.66.255
CF:141.101.67.0-141.101.67.255
CF:141.101.68.0-141.101.68.255
CF:141.101.69.0-141.101.69.255
CF:141.101.70.0-141.101.70.255
CF:141.101.71.0-141.101.71.255
CF:141.101.72.0-141.101.72.255
CF:141.101.73.0-141.101.73.255
CF:141.101.74.0-141.101.74.255
CF:141.101.75.0-141.101.75.255
CF:141.101.76.0-141.101.77.255
CF:141.101.82.0-141.101.82.255
CF:141.101.83.0-141.101.83.255
CF:141.101.84.0-141.101.84.255
CF:141.101.85.0-141.101.85.255
CF:141.101.88.0-141.101.91.255
CF:141.101.94.0-141.101.94.255
CF:141.101.95.0-141.101.95.255
CF:141.101.96.0-141.101.96.255
CF:141.101.97.0-141.101.97.255
CF:141.101.98.0-141.101.98.255
CF:141.101.99.0-141.101.99.255
CF:141.101.100.0-141.101.103.255
CF:141.101.104.0-141.101.104.255
CF:141.101.105.0-141.101.105.255
CF:141.101.106.0-141.101.106.255
CF:141.101.107.0-141.101.107.255
CF:141.101.108.0-141.101.108.255
CF:141.101.109.0-141.101.109.255
CF:141.101.110.0-141.101.110.255
CF:141.101.111.0-141.101.111.255
CF:141.101.112.0-141.101.113.255
CF:141.101.112.0-141.101.127.255
CF:141.101.114.0-141.101.115.255
CF:141.101.120.0-141.101.123.255
CF:162.158.0.0-162.158.3.255
CF:162.158.0.0-162.159.255.255
CF:162.158.4.0-162.158.7.255
CF:162.158.8.0-162.158.8.255
CF:162.158.9.0-162.158.9.255
CF:162.158.10.0-162.158.10.255
CF:162.158.11.0-162.158.11.255
CF:162.158.12.0-162.158.15.255
CF:162.158.16.0-162.158.19.255
CF:162.158.20.0-162.158.23.255
CF:162.158.24.0-162.158.24.255
CF:162.158.25.0-162.158.25.255
CF:162.158.26.0-162.158.26.255
CF:162.158.27.0-162.158.27.255
CF:162.158.28.0-162.158.28.255
CF:162.158.29.0-162.158.29.255
CF:162.158.30.0-162.158.30.255
CF:162.158.31.0-162.158.31.255
CF:162.158.32.0-162.158.35.255
CF:162.158.36.0-162.158.36.255
CF:162.158.37.0-162.158.37.255
CF:162.158.38.0-162.158.38.255
CF:162.158.39.0-162.158.39.255
CF:162.158.40.0-162.158.40.255
CF:162.158.41.0-162.158.41.255
CF:162.158.42.0-162.158.42.255
CF:162.158.43.0-162.158.43.255
CF:162.158.44.0-162.158.44.255
CF:162.158.45.0-162.158.45.255
CF:162.158.46.0-162.158.46.255
CF:162.158.47.0-162.158.47.255
CF:162.158.48.0-162.158.48.255
CF:162.158.49.0-162.158.49.255
CF:162.158.50.0-162.158.50.255
CF:162.158.51.0-162.158.51.255
CF:162.158.52.0-162.158.52.255
CF:162.158.53.0-162.158.53.255
CF:162.158.54.0-162.158.54.255
CF:162.158.55.0-162.158.55.255
CF:162.158.56.0-162.158.59.255
CF:162.158.60.0-162.158.63.255
CF:162.158.64.0-162.158.67.255
CF:162.158.64.0-162.158.71.255
CF:162.158.72.0-162.158.75.255
CF:162.158.76.0-162.158.79.255
CF:162.158.82.0-162.158.82.255
CF:162.158.82.0-162.158.83.255
CF:162.158.83.0-162.158.83.255
CF:162.158.84.0-162.158.84.255
CF:162.158.84.0-162.158.87.255
CF:162.158.85.0-162.158.85.255
CF:162.158.86.0-162.158.86.255
CF:162.158.87.0-162.158.87.255
CF:162.158.88.0-162.158.88.255
CF:162.158.88.0-162.158.95.255
CF:162.158.89.0-162.158.89.255
CF:162.158.90.0-162.158.90.255
CF:162.158.91.0-162.158.91.255
CF:162.158.92.0-162.158.92.255
CF:162.158.93.0-162.158.93.255
CF:162.158.94.0-162.158.94.255
CF:162.158.95.0-162.158.95.255
CF:162.158.96.0-162.158.96.255
CF:162.158.97.0-162.158.97.255
CF:162.158.98.0-162.158.98.255
CF:162.158.99.0-162.158.99.255
CF:162.158.100.0-162.158.100.255
CF:162.158.101.0-162.158.101.255
CF:162.158.102.0-162.158.102.255
CF:162.158.103.0-162.158.103.255
CF:162.158.104.0-162.158.104.255
CF:162.158.105.0-162.158.105.255
CF:162.158.106.0-162.158.106.255
CF:162.158.107.0-162.158.107.255
CF:162.158.108.0-162.158.111.255
CF:162.158.112.0-162.158.112.255
CF:162.158.113.0-162.158.113.255
CF:162.158.114.0-162.158.114.255
CF:162.158.115.0-162.158.115.255
CF:162.158.116.0-162.158.119.255
CF:162.158.120.0-162.158.120.255
CF:162.158.121.0-162.158.121.255
CF:162.158.122.0-162.158.122.255
CF:162.158.123.0-162.158.123.255
CF:162.158.124.0-162.158.127.255
CF:162.158.128.0-162.158.131.255
CF:162.158.132.0-162.158.132.255
CF:162.158.133.0-162.158.133.255
CF:162.158.134.0-162.158.134.255
CF:162.158.135.0-162.158.135.255
CF:162.158.136.0-162.158.139.255
CF:162.158.140.0-162.158.140.255
CF:162.158.141.0-162.158.141.255
CF:162.158.142.0-162.158.142.255
CF:162.158.143.0-162.158.143.255
CF:162.158.144.0-162.158.144.255
CF:162.158.145.0-162.158.145.255
CF:162.158.146.0-162.158.146.255
CF:162.158.147.0-162.158.147.255
CF:162.158.148.0-162.158.151.255
CF:162.158.152.0-162.158.155.255
CF:162.158.156.0-162.158.159.255
CF:162.158.160.0-162.158.175.255
CF:162.158.176.0-162.158.176.255
CF:162.158.177.0-162.158.177.255
CF:162.158.178.0-162.158.178.255
CF:162.158.179.0-162.158.179.255
CF:162.158.180.0-162.158.183.255
CF:162.158.184.0-162.158.184.255
CF:162.158.185.0-162.158.185.255
CF:162.158.186.0-162.158.186.255
CF:162.158.187.0-162.158.187.255
CF:162.158.188.0-162.158.188.255
CF:162.158.189.0-162.158.189.255
CF:162.158.190.0-162.158.190.255
CF:162.158.191.0-162.158.191.255
CF:162.158.192.0-162.158.192.255
CF:162.158.193.0-162.158.193.255
CF:162.158.194.0-162.158.194.255
CF:162.158.195.0-162.158.195.255
CF:162.158.196.0-162.158.196.255
CF:162.158.197.0-162.158.197.255
CF:162.158.198.0-162.158.198.255
CF:162.158.199.0-162.158.199.255
CF:162.158.200.0-162.158.203.255
CF:162.158.204.0-162.158.205.255
CF:162.158.206.0-162.158.207.255
CF:162.158.208.0-162.158.211.255
CF:162.158.212.0-162.158.215.255
CF:162.158.216.0-162.158.217.255
CF:162.158.218.0-162.158.219.255
CF:162.158.220.0-162.158.223.255
CF:162.158.224.0-162.158.227.255
CF:162.158.228.0-162.158.231.255
CF:162.158.232.0-162.158.235.255
CF:162.158.236.0-162.158.239.255
CF:162.158.240.0-162.158.243.255
CF:162.158.244.0-162.158.247.255
CF:162.158.248.0-162.158.249.255
CF:162.158.248.0-162.158.251.255
CF:162.158.252.0-162.158.255.255
CF:162.159.0.0-162.159.0.255
CF:162.159.0.0-162.159.15.255
CF:162.159.1.0-162.159.1.255
CF:162.159.2.0-162.159.2.255
CF:162.159.3.0-162.159.3.255
CF:162.159.4.0-162.159.4.255
CF:162.159.5.0-162.159.5.255
CF:162.159.6.0-162.159.6.255
CF:162.159.7.0-162.159.7.255
CF:162.159.8.0-162.159.8.255
CF:162.159.9.0-162.159.9.255
CF:162.159.10.0-162.159.10.255
CF:162.159.11.0-162.159.11.255
CF:162.159.12.0-162.159.12.255
CF:162.159.13.0-162.159.13.255
CF:162.159.14.0-162.159.14.255
CF:162.159.15.0-162.159.15.255
CF:162.159.16.0-162.159.16.255
CF:162.159.16.0-162.159.31.255
CF:162.159.17.0-162.159.17.255
CF:162.159.18.0-162.159.18.255
CF:162.159.19.0-162.159.19.255
CF:162.159.20.0-162.159.20.255
CF:162.159.21.0-162.159.21.255
CF:162.159.22.0-162.159.22.255
CF:162.159.23.0-162.159.23.255
CF:162.159.24.0-162.159.24.255
CF:162.159.25.0-162.159.25.255
CF:162.159.26.0-162.159.26.255
CF:162.159.27.0-162.159.27.255
CF:162.159.28.0-162.159.28.255
CF:162.159.29.0-162.159.29.255
CF:162.159.30.0-162.159.30.255
CF:162.159.31.0-162.159.31.255
CF:162.159.32.0-162.159.33.255
CF:162.159.34.0-162.159.35.255
CF:162.159.36.0-162.159.36.255
CF:162.159.40.0-162.159.41.255
CF:162.159.42.0-162.159.43.255
CF:162.159.46.0-162.159.46.255
CF:162.159.128.0-162.159.159.255
CF:162.159.128.0-162.159.255.255
CF:162.159.132.0-162.159.132.255
CF:162.159.208.0-162.159.208.255
CF:162.159.208.0-162.159.211.255
CF:162.159.209.0-162.159.209.255
CF:162.159.210.0-162.159.210.255
CF:162.159.211.0-162.159.211.255
CF:162.159.224.0-162.159.239.255
CF:172.64.0.0-172.64.15.255
CF:172.64.0.0-172.64.255.255
CF:172.64.0.0-172.71.255.255
CF:172.64.16.0-172.64.31.255
CF:172.64.32.0-172.64.47.255
CF:172.64.48.0-172.64.63.255
CF:172.64.64.0-172.64.79.255
CF:172.64.96.0-172.64.111.255
CF:172.64.112.0-172.64.127.255
CF:172.64.128.0-172.64.143.255
CF:172.64.144.0-172.64.159.255
CF:172.64.160.0-172.64.175.255
CF:172.64.176.0-172.64.191.255
CF:172.64.192.0-172.64.207.255
CF:172.64.208.0-172.64.223.255
CF:172.65.0.0-172.65.15.255
CF:172.65.16.0-172.65.31.255
CF:172.65.32.0-172.65.47.255
CF:172.65.48.0-172.65.63.255
CF:172.65.64.0-172.65.79.255
CF:172.65.80.0-172.65.95.255
CF:172.65.96.0-172.65.111.255
CF:172.65.112.0-172.65.127.255
CF:172.65.128.0-172.65.143.255
CF:172.65.144.0-172.65.159.255
CF:172.65.160.0-172.65.175.255
CF:172.65.176.0-172.65.191.255
CF:172.65.192.0-172.65.207.255
CF:172.65.208.0-172.65.223.255
CF:172.65.224.0-172.65.239.255
CF:172.65.240.0-172.65.255.255
CF:172.68.0.0-172.68.3.255
CF:172.68.4.0-172.68.7.255
CF:172.68.8.0-172.68.11.255
CF:172.68.12.0-172.68.15.255
CF:172.68.16.0-172.68.31.255
CF:172.68.32.0-172.68.35.255
CF:172.68.36.0-172.68.39.255
CF:172.68.40.0-172.68.43.255
CF:172.68.44.0-172.68.47.255
CF:172.68.48.0-172.68.51.255
CF:172.68.52.0-172.68.55.255
CF:172.68.56.0-172.68.56.255
CF:172.68.57.0-172.68.57.255
CF:172.68.58.0-172.68.58.255
CF:172.68.59.0-172.68.59.255
CF:172.68.60.0-172.68.63.255
CF:172.68.64.0-172.68.67.255
CF:172.68.68.0-172.68.71.255
CF:172.68.72.0-172.68.75.255
CF:172.68.76.0-172.68.79.255
CF:172.68.80.0-172.68.83.255
CF:172.68.84.0-172.68.87.255
CF:172.68.88.0-172.68.91.255
CF:172.68.92.0-172.68.95.255
CF:172.68.96.0-172.68.99.255
CF:172.68.100.0-172.68.103.255
CF:172.68.104.0-172.68.107.255
CF:172.68.108.0-172.68.111.255
CF:172.68.112.0-172.68.115.255
CF:172.68.116.0-172.68.119.255
CF:172.68.120.0-172.68.121.255
CF:172.68.120.0-172.68.123.255
CF:172.68.124.0-172.68.127.255
CF:172.68.128.0-172.68.131.255
CF:172.68.132.0-172.68.135.255
CF:172.68.136.0-172.68.139.255
CF:172.68.140.0-172.68.143.255
CF:172.68.144.0-172.68.147.255
CF:172.68.148.0-172.68.151.255
CF:172.68.152.0-172.68.155.255
CF:172.68.160.0-172.68.163.255
CF:172.68.164.0-172.68.165.255
CF:172.68.166.0-172.68.167.255
CF:172.68.168.0-172.68.169.255
CF:172.68.172.0-172.68.175.255
CF:172.68.176.0-172.68.179.255
CF:172.68.180.0-172.68.183.255
CF:172.68.184.0-172.68.187.255
CF:172.68.188.0-172.68.191.255
CF:172.68.196.0-172.68.199.255
CF:172.68.200.0-172.68.203.255
CF:172.68.204.0-172.68.207.255
CF:172.68.208.0-172.68.211.255
CF:172.68.212.0-172.68.215.255
CF:172.68.216.0-172.68.219.255
CF:172.68.220.0-172.68.223.255
CF:172.68.224.0-172.68.227.255
CF:172.68.228.0-172.68.231.255
CF:172.68.232.0-172.68.235.255
CF:172.68.236.0-172.68.239.255
CF:172.68.240.0-172.68.243.255
CF:172.68.244.0-172.68.247.255
CF:172.68.248.0-172.68.255.255
CF:172.69.0.0-172.69.1.255
CF:172.69.0.0-172.69.3.255
CF:172.69.4.0-172.69.7.255
CF:172.69.8.0-172.69.11.255
CF:172.69.12.0-172.69.15.255
CF:172.69.16.0-172.69.31.255
CF:172.69.32.0-172.69.35.255
CF:172.69.36.0-172.69.37.255
CF:172.69.40.0-172.69.43.255
CF:172.69.44.0-172.69.47.255
CF:172.69.48.0-172.69.51.255
CF:172.69.52.0-172.69.55.255
CF:172.69.56.0-172.69.59.255
CF:172.69.60.0-172.69.63.255
CF:172.69.64.0-172.69.71.255
CF:172.69.72.0-172.69.75.255
CF:172.69.76.0-172.69.79.255
CF:172.69.80.0-172.69.83.255
CF:172.69.84.0-172.69.87.255
CF:172.69.88.0-172.69.91.255
CF:172.69.92.0-172.69.95.255
CF:172.69.96.0-172.69.99.255
CF:172.69.100.0-172.69.103.255
CF:172.69.104.0-172.69.107.255
CF:172.69.108.0-172.69.111.255
CF:172.69.112.0-172.69.115.255
CF:172.69.116.0-172.69.119.255
CF:172.69.120.0-172.69.123.255
CF:172.69.124.0-172.69.127.255
CF:172.69.128.0-172.69.131.255
CF:172.69.132.0-172.69.135.255
CF:172.69.136.0-172.69.139.255
CF:172.69.140.0-172.69.143.255
CF:172.69.144.0-172.69.147.255
CF:172.69.148.0-172.69.151.255
CF:172.69.152.0-172.69.155.255
CF:172.69.156.0-172.69.159.255
CF:172.69.160.0-172.69.163.255
CF:172.69.164.0-172.69.167.255
CF:172.69.168.0-172.69.171.255
CF:172.69.172.0-172.69.175.255
CF:172.69.176.0-172.69.179.255
CF:172.69.180.0-172.69.183.255
CF:172.69.184.0-172.69.187.255
CF:172.69.188.0-172.69.191.255
CF:172.69.192.0-172.69.195.255
CF:172.69.196.0-172.69.199.255
CF:172.69.200.0-172.69.203.255
CF:172.69.204.0-172.69.207.255
CF:172.69.208.0-172.69.211.255
CF:172.69.212.0-172.69.215.255
CF:172.69.216.0-172.69.219.255
CF:172.69.220.0-172.69.223.255
CF:172.69.224.0-172.69.225.255
CF:172.69.224.0-172.69.227.255
CF:172.69.226.0-172.69.227.255
CF:172.69.228.0-172.69.231.255
CF:172.69.232.0-172.69.235.255
CF:172.69.236.0-172.69.239.255
CF:172.69.240.0-172.69.243.255
CF:172.69.244.0-172.69.245.255
CF:172.69.244.0-172.69.247.255
CF:172.69.246.0-172.69.247.255
CF:172.69.248.0-172.69.251.255
CF:172.69.252.0-172.69.255.255
CF:173.245.48.0-173.245.48.255
CF:173.245.48.0-173.245.63.255
CF:173.245.52.0-173.245.52.255
CF:173.245.54.0-173.245.54.255
CF:173.245.56.0-173.245.56.255
CF:173.245.58.0-173.245.58.255
CF:173.245.59.0-173.245.59.255
CF:173.245.60.0-173.245.61.255
CF:173.245.62.0-173.245.62.255
CF:173.245.63.0-173.245.63.255
CF:185.122.0.0-185.122.0.255
CF:188.114.96.0-188.114.96.255
CF:188.114.96.0-188.114.111.255
CF:188.114.97.0-188.114.97.255
CF:188.114.98.0-188.114.98.255
CF:188.114.99.0-188.114.99.255
CF:188.114.100.0-188.114.100.255
CF:188.114.101.0-188.114.101.255
CF:188.114.102.0-188.114.102.255
CF:188.114.103.0-188.114.103.255
CF:188.114.104.0-188.114.104.255
CF:188.114.106.0-188.114.107.255
CF:188.114.108.0-188.114.108.255
CF:188.114.109.0-188.114.109.255
CF:188.114.110.0-188.114.110.255
CF:188.114.111.0-188.114.111.255
CF:190.93.240.0-190.93.255.255
CF:190.93.244.0-190.93.247.255
CF:197.234.240.0-197.234.240.255
CF:197.234.240.0-197.234.243.255
CF:197.234.241.0-197.234.241.255
CF:197.234.242.0-197.234.242.255
CF:197.234.243.0-197.234.243.255
CF:198.41.128.0-198.41.128.255
CF:198.41.128.0-198.41.255.255
CF:198.41.129.0-198.41.129.255
CF:198.41.130.0-198.41.130.255
CF:198.41.132.0-198.41.135.255
CF:198.41.136.0-198.41.139.255
CF:198.41.144.0-198.41.144.255
CF:198.41.144.0-198.41.147.255
CF:198.41.148.0-198.41.148.255
CF:198.41.148.0-198.41.151.255
CF:198.41.152.0-198.41.155.255
CF:198.41.192.0-198.41.199.255
CF:198.41.192.0-198.41.223.255
CF:198.41.200.0-198.41.207.255
CF:198.41.208.0-198.41.209.255
CF:198.41.212.0-198.41.212.255
CF:198.41.213.0-198.41.213.255
CF:198.41.214.0-198.41.215.255
CF:198.41.216.0-198.41.216.255
CF:198.41.220.0-198.41.221.255
CF:198.41.222.0-198.41.222.255
CF:198.41.223.0-198.41.223.255
CF:198.41.224.0-198.41.227.255
CF:198.41.228.0-198.41.228.255
CF:198.41.229.0-198.41.229.255
CF:198.41.230.0-198.41.230.255
CF:198.41.231.0-198.41.231.255
CF:198.41.232.0-198.41.232.255
CF:198.41.233.0-198.41.233.255
CF:198.41.234.0-198.41.234.255
CF:198.41.235.0-198.41.235.255
CF:198.41.236.0-198.41.239.255
CF:198.41.240.0-198.41.240.255
CF:198.41.241.0-198.41.241.255
CF:198.41.242.0-198.41.242.255
CF:198.41.243.0-198.41.243.255
CF:198.41.246.0-198.41.247.255
CF:198.41.248.0-198.41.249.255
CF:198.41.250.0-198.41.250.255
CF:198.41.252.0-198.41.252.255
CF:199.27.132.0-199.27.132.255
